{
 "actions": [],
 "allow_import": 1,
 "autoname": "naming_series:",
 "creation": "2013-01-10 16:34:14",
 "doctype": "DocType",
 "document_type": "Setup",
 "engine": "InnoDB",
 "field_order": [
  "expenses_and_advances_tab",
  "naming_series",
  "employee",
  "employee_name",
  "department",
  "company",
  "column_break_5",
  "expense_approver",
  "approval_status",
  "expense_details",
  "expenses",
  "taxes_and_charges_sb",
  "set_taxes_manually",
  "tax_included",
  "taxes",
  "advance_payments_sb",
  "advances",
  "transactions_section",
  "total_sanctioned_amount",
  "total_taxes_and_charges",
  "total_advance_amount",
  "column_break_17",
  "grand_total",
  "total_claimed_amount",
  "total_amount_reimbursed",
  "accounting_details_tab",
  "accounting_details",
  "posting_date",
  "is_paid",
  "mode_of_payment",
  "unreconciled_amount",
  "payable_account",
  "column_break_24",
  "clearance_date",
  "remark",
  "accounting_dimensions_section",
  "project",
  "dimension_col_break",
  "cost_center",
  "more_info_tab",
  "more_details",
  "status",
  "task",
  "amended_from",
  "column_break_xdzn",
  "delivery_trip",
  "vehicle_log",
  "dashboard_tab"
 ],
 "fields": [
  {
   "default": "HR-EXP-.YYYY.-",
   "fieldname": "naming_series",
   "fieldtype": "Select",
   "label": "Series",
   "no_copy": 1,
   "options": "HR-EXP-.YYYY.-",
   "print_hide": 1,
   "reqd": 1,
   "set_only_once": 1
  },
  {
   "fieldname": "employee",
   "fieldtype": "Link",
   "in_global_search": 1,
   "in_standard_filter": 1,
   "label": "From Employee",
   "oldfieldname": "employee",
   "oldfieldtype": "Link",
   "options": "Employee",
   "reqd": 1,
   "search_index": 1
  },
  {
   "fetch_from": "employee.employee_name",
   "fieldname": "employee_name",
   "fieldtype": "Data",
   "in_global_search": 1,
   "label": "Employee Name",
   "oldfieldname": "employee_name",
   "oldfieldtype": "Data",
   "read_only": 1,
   "width": "150px"
  },
  {
   "fetch_from": "employee.department",
   "fieldname": "department",
   "fieldtype": "Link",
   "label": "Department",
   "options": "Department",
   "read_only": 1
  },
  {
   "fieldname": "column_break_5",
   "fieldtype": "Column Break"
  },
  {
   "fieldname": "expense_approver",
   "fieldtype": "Link",
   "label": "Expense Approver",
   "options": "User"
  },
  {
   "default": "Draft",
   "fieldname": "approval_status",
   "fieldtype": "Select",
   "in_list_view": 1,
   "label": "Approval Status",
   "no_copy": 1,
   "options": "Draft\nApproved\nRejected",
   "permlevel": 1,
   "search_index": 1
  },
  {
   "fieldname": "total_claimed_amount",
   "fieldtype": "Currency",
   "in_list_view": 1,
   "label": "Total Claimed Amount",
   "no_copy": 1,
   "oldfieldname": "total_claimed_amount",
   "oldfieldtype": "Currency",
   "options": "Company:company:default_currency",
   "read_only": 1,
   "width": "160px"
  },
  {
   "fieldname": "total_sanctioned_amount",
   "fieldtype": "Currency",
   "label": "Total Sanctioned Amount",
   "no_copy": 1,
   "oldfieldname": "total_sanctioned_amount",
   "oldfieldtype": "Currency",
   "options": "Company:company:default_currency",
   "read_only": 1,
   "width": "160px"
  },
  {
   "default": "0",
   "depends_on": "eval:(doc.docstatus==0 || doc.is_paid)",
   "fieldname": "is_paid",
   "fieldtype": "Check",
   "label": "Is Paid"
  },
  {
   "fieldname": "expense_details",
   "fieldtype": "Section Break",
   "oldfieldtype": "Section Break"
  },
  {
   "fieldname": "expenses",
   "fieldtype": "Table",
   "label": "Expenses",
   "oldfieldname": "expense_voucher_details",
   "oldfieldtype": "Table",
   "options": "Expense Claim Detail",
   "reqd": 1
  },
  {
   "default": "Today",
   "fieldname": "posting_date",
   "fieldtype": "Date",
   "in_standard_filter": 1,
   "label": "Posting Date",
   "oldfieldname": "posting_date",
   "oldfieldtype": "Date",
   "reqd": 1
  },
  {
   "fieldname": "vehicle_log",
   "fieldtype": "Link",
   "label": "Vehicle Log",
   "options": "Vehicle Log",
   "read_only": 1
  },
  {
   "fieldname": "project",
   "fieldtype": "Link",
   "label": "Project",
   "options": "Project"
  },
  {
   "fieldname": "task",
   "fieldtype": "Link",
   "label": "Task",
   "options": "Task",
   "remember_last_selected_value": 1
  },
  {
   "fieldname": "total_amount_reimbursed",
   "fieldtype": "Currency",
   "in_list_view": 1,
   "label": "Total Amount Reimbursed",
   "no_copy": 1,
   "options": "Company:company:default_currency",
   "read_only": 1
  },
  {
   "fieldname": "remark",
   "fieldtype": "Small Text",
   "label": "Remark",
   "no_copy": 1,
   "oldfieldname": "remark",
   "oldfieldtype": "Small Text"
  },
  {
   "fieldname": "accounting_details",
   "fieldtype": "Section Break",
   "label": "Accounting Details"
  },
  {
   "fetch_from": "employee.company",
   "fieldname": "company",
   "fieldtype": "Link",
   "in_standard_filter": 1,
   "label": "Company",
   "oldfieldname": "company",
   "oldfieldtype": "Link",
   "options": "Company",
   "read_only": 1,
   "reqd": 1
  },
  {
   "depends_on": "is_paid",
   "fieldname": "mode_of_payment",
   "fieldtype": "Link",
   "label": "Mode of Payment",
   "options": "Mode of Payment"
  },
  {
   "fieldname": "clearance_date",
   "fieldtype": "Date",
   "label": "Clearance Date"
  },
  {
   "fieldname": "column_break_24",
   "fieldtype": "Column Break"
  },
  {
   "fetch_from": "company.default_expense_claim_payable_account",
   "fetch_if_empty": 1,
   "fieldname": "payable_account",
   "fieldtype": "Link",
   "label": "Payable Account",
   "options": "Account"
  },
  {
   "fetch_from": "company.cost_center",
   "fetch_if_empty": 1,
   "fieldname": "cost_center",
   "fieldtype": "Link",
   "label": "Cost Center",
   "options": "Cost Center"
  },
  {
   "fieldname": "more_details",
   "fieldtype": "Section Break"
  },
  {
   "default": "Draft",
   "fieldname": "status",
   "fieldtype": "Select",
   "in_list_view": 1,
   "label": "Status",
   "no_copy": 1,
   "options": "Draft\nPaid\nUnpaid\nRejected\nSubmitted\nCancelled",
   "print_hide": 1,
   "read_only": 1
  },
  {
   "fieldname": "amended_from",
   "fieldtype": "Link",
   "ignore_user_permissions": 1,
   "label": "Amended From",
   "no_copy": 1,
   "oldfieldname": "amended_from",
   "oldfieldtype": "Data",
   "options": "Expense Claim",
   "print_hide": 1,
   "read_only": 1,
   "report_hide": 1,
   "width": "160px"
  },
  {
   "collapsible": 1,
   "collapsible_depends_on": "eval:doc.advances?.length",
   "fieldname": "advance_payments_sb",
   "fieldtype": "Section Break",
   "label": "Advance Payments"
  },
  {
   "fieldname": "advances",
   "fieldtype": "Table",
   "label": "Advances",
   "options": "Expense Claim Advance"
  },
  {
   "fieldname": "total_advance_amount",
   "fieldtype": "Currency",
   "label": "Total Advance Amount",
   "options": "Company:company:default_currency",
   "read_only": 1
  },
  {
   "fieldname": "accounting_dimensions_section",
   "fieldtype": "Section Break",
   "label": "Accounting Dimensions"
  },
  {
   "fieldname": "dimension_col_break",
   "fieldtype": "Column Break"
  },
  {
   "fieldname": "taxes",
   "fieldtype": "Table",
   "label": "Expense Taxes and Charges",
   "options": "Expense Taxes and Charges"
  },
  {
   "fieldname": "transactions_section",
   "fieldtype": "Section Break",
   "label": "Totals"
  },
  {
   "fieldname": "grand_total",
   "fieldtype": "Currency",
   "label": "Grand Total",
   "options": "Company:company:default_currency",
   "read_only": 1
  },
  {
   "fieldname": "column_break_17",
   "fieldtype": "Column Break"
  },
  {
   "fieldname": "total_taxes_and_charges",
   "fieldtype": "Currency",
   "label": "Total Taxes and Charges",
   "options": "Company:company:default_currency",
   "read_only": 1
  },
  {
   "depends_on": "eval: doc.delivery_trip",
   "fieldname": "delivery_trip",
   "fieldtype": "Link",
   "label": "Delivery Trip",
   "options": "Delivery Trip"
  },
  {
   "fieldname": "column_break_xdzn",
   "fieldtype": "Column Break"
  },
  {
   "fieldname": "accounting_details_tab",
   "fieldtype": "Tab Break",
   "label": "Accounting"
  },
  {
   "fieldname": "more_info_tab",
   "fieldtype": "Tab Break",
   "label": "More Info"
  },
  {
   "fieldname": "dashboard_tab",
   "fieldtype": "Tab Break",
   "label": "Dashboard",
   "show_dashboard": 1
  },
  {
   "fieldname": "expenses_and_advances_tab",
   "fieldtype": "Tab Break",
   "label": "Expenses & Advances"
  },
  {
   "collapsible": 1,
   "collapsible_depends_on": "eval:doc.taxes?.length",
   "fieldname": "taxes_and_charges_sb",
   "fieldtype": "Section Break",
   "label": "Taxes & Charges",
   "options": "Simple"
  },
  {
   "default": "0",
   "depends_on": "eval:doc.set_taxes_manually",
   "fieldname": "tax_included",
   "fieldtype": "Check",
   "label": "Tax included in charge amount"
  },
  {
   "default": "0",
   "description": "If not checked, taxes will be determined based on the Expense Claim Type configuration",
   "fieldname": "set_taxes_manually",
   "fieldtype": "Check",
   "label": "Set taxes manually"
  },
  {
   "fieldname": "unreconciled_amount",
   "fieldtype": "Currency",
   "label": "Unreconciled Amount",
   "no_copy": 1,
   "print_hide": 1,
   "read_only": 1
  }
 ],
 "icon": "uil uil-money-bill",
 "idx": 1,
 "is_submittable": 1,
 "links": [],
 "modified": "2024-06-12 15:56:45.609119",
 "modified_by": "Administrator",
 "module": "HR",
 "name": "Expense Claim",
 "naming_rule": "By \"Naming Series\" field",
 "owner": "Administrator",
 "permissions": [
  {
   "amend": 1,
   "cancel": 1,
   "create": 1,
   "delete": 1,
   "email": 1,
   "export": 1,
   "print": 1,
   "read": 1,
   "report": 1,
   "role": "HR User",
   "select": 1,
   "share": 1,
   "submit": 1,
   "write": 1
  },
  {
   "amend": 1,
   "cancel": 1,
   "create": 1,
   "delete": 1,
   "email": 1,
   "export": 1,
   "print": 1,
   "read": 1,
   "report": 1,
   "role": "HR Manager",
   "select": 1,
   "share": 1,
   "submit": 1,
   "write": 1
  },
  {
   "amend": 1,
   "cancel": 1,
   "create": 1,
   "delete": 1,
   "email": 1,
   "export": 1,
   "print": 1,
   "read": 1,
   "report": 1,
   "role": "Expense Approver",
   "select": 1,
   "share": 1,
   "submit": 1,
   "write": 1
  },
  {
   "create": 1,
   "delete": 1,
   "email": 1,
   "export": 1,
   "if_owner": 1,
   "print": 1,
   "read": 1,
   "report": 1,
   "role": "Employee",
   "select": 1,
   "share": 1,
   "write": 1
  },
  {
   "permlevel": 1,
   "read": 1,
   "role": "HR Manager",
   "write": 1
  },
  {
   "permlevel": 1,
   "read": 1,
   "role": "HR User",
   "write": 1
  },
  {
   "delete": 1,
   "email": 1,
   "permlevel": 1,
   "print": 1,
   "read": 1,
   "report": 1,
   "role": "Expense Approver",
   "share": 1,
   "write": 1
  },
  {
   "email": 1,
   "export": 1,
   "permlevel": 1,
   "print": 1,
   "read": 1,
   "report": 1,
   "role": "All",
   "share": 1
  }
 ],
 "search_fields": "employee,employee_name",
 "show_name_in_global_search": 1,
 "sort_field": "creation",
 "sort_order": "DESC",
 "states": [
  {
   "color": "Gray",
   "title": "Draft"
  },
  {
   "color": "Blue",
   "title": "Submitted"
  },
  {
   "color": "Red",
   "title": "Cancelled"
  },
  {
   "color": "Green",
   "title": "Paid"
  },
  {
   "color": "Yellow",
   "title": "Unpaid"
  },
  {
   "color": "Red",
   "title": "Rejected"
  }
 ],
 "timeline_field": "employee",
 "title_field": "employee_name"
}
