{
 "based_on": "creation",
 "chart_name": "Appraisal Overview",
 "chart_type": "Report",
 "creation": "2024-07-05 10:02:04.780895",
 "docstatus": 0,
 "doctype": "Dashboard Chart",
 "dynamic_filters_json": "{\"company\":\" frappe.defaults.get_user_default(\\\"Company\\\")\"}",
 "filters_json": "{}",
 "group_by_type": "Count",
 "idx": 0,
 "is_public": 1,
 "is_standard": 1,
 "modified": "2024-07-05 10:02:04.780895",
 "modified_by": "Administrator",
 "module": "HR",
 "name": "Appraisal Overview",
 "number_of_groups": 0,
 "owner": "Administrator",
 "report_name": "Appraisal Overview",
 "roles": [],
 "time_interval": "Yearly",
 "timeseries": 1,
 "timespan": "Last Year",
 "type": "Bar",
 "use_report_chart": 1,
 "x_field": "",
 "y_axis": []
}