{
 "actions": [],
 "creation": "2018-04-13 16:01:20.928853",
 "doctype": "DocType",
 "editable_grid": 1,
 "engine": "InnoDB",
 "field_order": [
  "leave_type",
  "annual_allocation"
 ],
 "fields": [
  {
   "columns": 3,
   "fieldname": "leave_type",
   "fieldtype": "Link",
   "in_list_view": 1,
   "label": "Leave Type",
   "options": "Leave Type",
   "reqd": 1
  },
  {
   "columns": 2,
   "fieldname": "annual_allocation",
   "fieldtype": "Float",
   "in_list_view": 1,
   "label": "Annual Allocation",
   "reqd": 1
  }
 ],
 "istable": 1,
 "links": [],
 "modified": "2024-03-27 13:10:01.896848",
 "modified_by": "Administrator",
 "module": "HR",
 "name": "Leave Policy Detail",
 "owner": "Administrator",
 "permissions": [],
 "quick_entry": 1,
 "sort_field": "creation",
 "sort_order": "DESC",
 "states": [],
 "track_changes": 1
}
