{
 "actions": [],
 "creation": "2013-02-22 01:27:47",
 "doctype": "DocType",
 "editable_grid": 1,
 "engine": "InnoDB",
 "field_order": [
  "allow_user"
 ],
 "fields": [
  {
   "fieldname": "allow_user",
   "fieldtype": "Link",
   "in_list_view": 1,
   "label": "Allow User",
   "options": "User",
   "print_width": "200px",
   "reqd": 1,
   "width": "200px"
  }
 ],
 "idx": 1,
 "istable": 1,
 "links": [],
 "modified": "2024-03-27 13:10:00.737896",
 "modified_by": "Administrator",
 "module": "HR",
 "name": "Leave Block List Allow",
 "owner": "Administrator",
 "permissions": [],
 "sort_field": "creation",
 "sort_order": "DESC",
 "states": []
}
