{
 "charts": [],
 "content": "[{\"type\":\"header\",\"data\":{\"text\":\"<span class=\\\"h4\\\"><b>Your Shortcuts</b></span>\",\"col\":12}},{\"type\":\"shortcut\",\"data\":{\"shortcut_name\":\"Employee Tax Exemption Declaration\",\"col\":3}},{\"type\":\"shortcut\",\"data\":{\"shortcut_name\":\"Additional Salary\",\"col\":3}},{\"type\":\"shortcut\",\"data\":{\"shortcut_name\":\"Income Tax Computation\",\"col\":3}},{\"type\":\"spacer\",\"data\":{\"col\":12}},{\"type\":\"header\",\"data\":{\"text\":\"<span class=\\\"h4\\\"><b>Masters &amp; Reports</b></span>\",\"col\":12}},{\"type\":\"card\",\"data\":{\"card_name\":\"Tax Setup\",\"col\":4}},{\"type\":\"card\",\"data\":{\"card_name\":\"Exemption\",\"col\":4}},{\"type\":\"card\",\"data\":{\"card_name\":\"Benefits\",\"col\":4}},{\"type\":\"card\",\"data\":{\"card_name\":\"Reports\",\"col\":4}}]",
 "creation": "2022-08-20 17:04:52.350699",
 "custom_blocks": [],
 "docstatus": 0,
 "doctype": "Workspace",
 "for_user": "",
 "hide_custom": 0,
 "icon": "crm",
 "idx": 0,
 "is_hidden": 1,
 "is_standard": 1,
 "label": "Tax & Benefits",
 "links": [
  {
   "columns": 0,
   "hidden": 0,
   "is_query_report": 0,
   "label": "Benefits",
   "link_count": 2,
   "onboard": 0,
   "type": "Card Break"
  },
  {
   "columns": 0,
   "hidden": 0,
   "is_query_report": 0,
   "label": "Employee Benefit Application",
   "link_count": 0,
   "link_to": "Employee Benefit Application",
   "link_type": "DocType",
   "onboard": 0,
   "type": "Link"
  },
  {
   "columns": 0,
   "hidden": 0,
   "is_query_report": 0,
   "label": "Employee Benefit Claim",
   "link_count": 0,
   "link_to": "Employee Benefit Claim",
   "link_type": "DocType",
   "onboard": 0,
   "type": "Link"
  },
  {
   "columns": 0,
   "hidden": 0,
   "is_query_report": 0,
   "label": "Tax Setup",
   "link_count": 3,
   "onboard": 0,
   "type": "Card Break"
  },
  {
   "columns": 0,
   "hidden": 0,
   "is_query_report": 0,
   "label": "Income Tax Slab",
   "link_count": 0,
   "link_to": "Income Tax Slab",
   "link_type": "DocType",
   "onboard": 0,
   "type": "Link"
  },
  {
   "columns": 0,
   "hidden": 0,
   "is_query_report": 0,
   "label": "Employee Tax Exemption Declaration Category",
   "link_count": 0,
   "link_to": "Employee Tax Exemption Declaration Category",
   "link_type": "DocType",
   "onboard": 0,
   "type": "Link"
  },
  {
   "columns": 0,
   "hidden": 0,
   "is_query_report": 0,
   "label": "Employee Tax Exemption Sub Category",
   "link_count": 0,
   "link_to": "Employee Tax Exemption Sub Category",
   "link_type": "DocType",
   "onboard": 0,
   "type": "Link"
  },
  {
   "columns": 0,
   "hidden": 0,
   "is_query_report": 0,
   "label": "Exemption",
   "link_count": 2,
   "onboard": 0,
   "type": "Card Break"
  },
  {
   "columns": 0,
   "hidden": 0,
   "is_query_report": 0,
   "label": "Employee Tax Exemption Declaration",
   "link_count": 0,
   "link_to": "Employee Tax Exemption Declaration",
   "link_type": "DocType",
   "onboard": 0,
   "type": "Link"
  },
  {
   "columns": 0,
   "hidden": 0,
   "is_query_report": 0,
   "label": "Employee Tax Exemption Proof Submission",
   "link_count": 0,
   "link_to": "Employee Tax Exemption Proof Submission",
   "link_type": "DocType",
   "onboard": 0,
   "type": "Link"
  },
  {
   "columns": 0,
   "hidden": 0,
   "is_query_report": 0,
   "label": "Reports",
   "link_count": 2,
   "onboard": 0,
   "type": "Card Break"
  },
  {
   "columns": 0,
   "hidden": 0,
   "is_query_report": 1,
   "label": "Income Tax Computation",
   "link_count": 0,
   "link_to": "Income Tax Computation",
   "link_type": "Report",
   "onboard": 0,
   "type": "Link"
  },
  {
   "columns": 0,
   "hidden": 0,
   "is_query_report": 1,
   "label": "Income Tax Deductions",
   "link_count": 0,
   "link_to": "Income Tax Deductions",
   "link_type": "Report",
   "onboard": 0,
   "type": "Link"
  }
 ],
 "modified": "2023-11-23 15:59:12.997849",
 "modified_by": "Administrator",
 "module": "Payroll",
 "name": "Tax & Benefits",
 "number_cards": [],
 "owner": "Administrator",
 "parent_page": "Payroll",
 "public": 1,
 "quick_lists": [],
 "roles": [],
 "sequence_id": 38.0,
 "shortcuts": [
  {
   "color": "Red",
   "columns": 0,
   "doc_view": "List",
   "format": "{} Draft",
   "label": "Employee Tax Exemption Declaration",
   "link_to": "Employee Tax Exemption Declaration",
   "stats_filter": "{\"docstatus\":[\"=\",\"0\"]}",
   "type": "DocType"
  },
  {
   "color": "Grey",
   "columns": 0,
   "doc_view": "List",
   "label": "Additional Salary",
   "link_to": "Additional Salary",
   "type": "DocType"
  },
  {
   "color": "Grey",
   "columns": 0,
   "doc_view": "List",
   "label": "Income Tax Computation",
   "link_to": "Income Tax Computation",
   "type": "Report"
  }
 ],
 "title": "Tax & Benefits"
}