{
 "actions": [],
 "creation": "2020-06-04 15:13:33.589685",
 "doctype": "DocType",
 "document_type": "Other",
 "editable_grid": 1,
 "engine": "InnoDB",
 "field_order": [
  "working_days_section",
  "payroll_based_on",
  "consider_unmarked_attendance_as",
  "include_holidays_in_total_working_days",
  "consider_marked_attendance_on_holidays",
  "column_break_6",
  "max_working_hours_against_timesheet",
  "daily_wages_fraction_for_half_day",
  "column_break_rnoq",
  "disable_rounded_total",
  "column_break_gzpl",
  "show_leave_balances_in_salary_slip",
  "email_section",
  "email_salary_slip_to_employee",
  "sender",
  "sender_email",
  "email_template",
  "column_break_iewr",
  "encrypt_salary_slips_in_emails",
  "password_policy",
  "other_settings_section",
  "define_opening_balance_for_earning_and_deductions",
  "column_break_zi9y",
  "process_payroll_accounting_entry_based_on_employee"
 ],
 "fields": [
  {
   "default": "Leave",
   "fieldname": "payroll_based_on",
   "fieldtype": "Select",
   "label": "Calculate Payroll Working Days Based On",
   "options": "Leave\nAttendance"
  },
  {
   "fieldname": "max_working_hours_against_timesheet",
   "fieldtype": "Float",
   "label": "Max working hours against Timesheet"
  },
  {
   "default": "0",
   "description": "If enabled, total no. of working days will include holidays, and this will reduce the value of Salary Per Day",
   "fieldname": "include_holidays_in_total_working_days",
   "fieldtype": "Check",
   "label": "Include holidays in Total no. of Working Days"
  },
  {
   "default": "0",
   "description": "If checked, hides and disables Rounded Total field in Salary Slips",
   "fieldname": "disable_rounded_total",
   "fieldtype": "Check",
   "label": "Disable Rounded Total"
  },
  {
   "default": "0.5",
   "description": "The fraction of daily wages to be paid for half-day attendance",
   "fieldname": "daily_wages_fraction_for_half_day",
   "fieldtype": "Float",
   "label": "Fraction of Daily Salary for Half Day"
  },
  {
   "default": "1",
   "description": "Emails salary slip to employee based on preferred email selected in Employee",
   "fieldname": "email_salary_slip_to_employee",
   "fieldtype": "Check",
   "label": "Email Salary Slip to Employee"
  },
  {
   "default": "0",
   "depends_on": "eval: doc.email_salary_slip_to_employee == 1;",
   "description": "The salary slip emailed to the employee will be password protected, the password will be generated based on the password policy.",
   "fieldname": "encrypt_salary_slips_in_emails",
   "fieldtype": "Check",
   "label": "Encrypt Salary Slips in Emails"
  },
  {
   "depends_on": "eval: doc.encrypt_salary_slips_in_emails == 1",
   "description": "<b>Example:</b> SAL-{first_name}-{date_of_birth.year} <br>This will generate a password like SAL-Jane-1972",
   "fieldname": "password_policy",
   "fieldtype": "Data",
   "in_list_view": 1,
   "label": "Password Policy"
  },
  {
   "depends_on": "eval:doc.payroll_based_on == 'Attendance'",
   "fieldname": "consider_unmarked_attendance_as",
   "fieldtype": "Select",
   "label": "Consider Unmarked Attendance As",
   "options": "Present\nAbsent"
  },
  {
   "default": "0",
   "fieldname": "show_leave_balances_in_salary_slip",
   "fieldtype": "Check",
   "label": "Show Leave Balances in Salary Slip"
  },
  {
   "default": "0",
   "description": "If checked, Payroll Payable will be booked against each employee",
   "fieldname": "process_payroll_accounting_entry_based_on_employee",
   "fieldtype": "Check",
   "label": "Process Payroll Accounting Entry based on Employee"
  },
  {
   "fieldname": "column_break_6",
   "fieldtype": "Column Break"
  },
  {
   "default": "0",
   "description": "If checked, then the system will enable the provision to set the opening balance for earnings and deductions till date while creating a Salary Structure Assignment (if any)",
   "fieldname": "define_opening_balance_for_earning_and_deductions",
   "fieldtype": "Check",
   "label": "Define Opening Balance for Earning and Deductions"
  },
  {
   "fieldname": "column_break_rnoq",
   "fieldtype": "Section Break",
   "label": "Salary Slip"
  },
  {
   "fieldname": "email_section",
   "fieldtype": "Section Break",
   "label": "Email"
  },
  {
   "fieldname": "working_days_section",
   "fieldtype": "Section Break",
   "label": "Working Days and Hours"
  },
  {
   "fieldname": "column_break_gzpl",
   "fieldtype": "Column Break"
  },
  {
   "fieldname": "other_settings_section",
   "fieldtype": "Section Break",
   "label": "Other Settings"
  },
  {
   "fieldname": "column_break_zi9y",
   "fieldtype": "Column Break"
  },
  {
   "fieldname": "column_break_iewr",
   "fieldtype": "Column Break"
  },
  {
   "default": "0",
   "depends_on": "include_holidays_in_total_working_days",
   "description": "If enabled, deducts payment days for absent attendance on holidays. By default, holidays are considered as paid",
   "fieldname": "consider_marked_attendance_on_holidays",
   "fieldtype": "Check",
   "label": "Consider Marked Attendance on Holidays"
  },
  {
   "depends_on": "eval:doc.email_salary_slip_to_employee",
   "fieldname": "sender",
   "fieldtype": "Link",
   "label": "Sender",
   "options": "Email Account"
  },
  {
   "depends_on": "eval:doc.sender",
   "fetch_from": "sender.email_id",
   "fieldname": "sender_email",
   "fieldtype": "Data",
   "label": "Sender Email",
   "read_only": 1
  },
  {
   "depends_on": "eval:doc.email_salary_slip_to_employee",
   "fieldname": "email_template",
   "fieldtype": "Link",
   "label": "Email Template",
   "options": "Email Template"
  }
 ],
 "icon": "fa fa-cog",
 "index_web_pages_for_search": 1,
 "issingle": 1,
 "links": [],
 "modified": "2024-03-27 13:10:12.692252",
 "modified_by": "Administrator",
 "module": "Payroll",
 "name": "Payroll Settings",
 "owner": "Administrator",
 "permissions": [
  {
   "create": 1,
   "email": 1,
   "print": 1,
   "read": 1,
   "role": "System Manager",
   "share": 1,
   "write": 1
  }
 ],
 "sort_field": "creation",
 "sort_order": "ASC",
 "states": [],
 "track_changes": 1
}
