{
 "actions": [],
 "autoname": "Prompt",
 "creation": "2018-02-12 15:06:18.767239",
 "doctype": "DocType",
 "editable_grid": 1,
 "engine": "InnoDB",
 "field_order": [
  "enabled",
  "select_users",
  "users",
  "send_emails_at",
  "holiday_list",
  "mail_details",
  "subject",
  "message"
 ],
 "fields": [
  {
   "default": "1",
   "fieldname": "enabled",
   "fieldtype": "Check",
   "label": "Enabled"
  },
  {
   "fieldname": "select_users",
   "fieldtype": "Section Break",
   "label": "Select Users"
  },
  {
   "fieldname": "users",
   "fieldtype": "Table",
   "label": "Users",
   "options": "Daily Work Summary Group User",
   "reqd": 1
  },
  {
   "fieldname": "send_emails_at",
   "fieldtype": "Select",
   "label": "Send Emails At",
   "options": "00:00\n01:00\n02:00\n03:00\n04:00\n05:00\n06:00\n07:00\n08:00\n09:00\n10:00\n11:00\n12:00\n13:00\n14:00\n15:00\n16:00\n17:00\n18:00\n19:00\n20:00\n21:00\n22:00\n23:00"
  },
  {
   "fieldname": "holiday_list",
   "fieldtype": "Link",
   "label": "Holiday List",
   "options": "Holiday List"
  },
  {
   "fieldname": "mail_details",
   "fieldtype": "Section Break",
   "label": "Reminder"
  },
  {
   "default": "What did you work on today?",
   "fieldname": "subject",
   "fieldtype": "Data",
   "label": "Subject"
  },
  {
   "default": "<p>Please share what did you do today. If you reply by midnight, your response will be recorded!</p>",
   "fieldname": "message",
   "fieldtype": "Text Editor",
   "label": "Message"
  }
 ],
 "links": [],
 "modified": "2024-03-27 13:06:49.230881",
 "modified_by": "Administrator",
 "module": "HR",
 "name": "Daily Work Summary Group",
 "owner": "Administrator",
 "permissions": [
  {
   "create": 1,
   "delete": 1,
   "email": 1,
   "export": 1,
   "print": 1,
   "read": 1,
   "report": 1,
   "role": "HR Manager",
   "share": 1,
   "write": 1
  }
 ],
 "quick_entry": 1,
 "sort_field": "creation",
 "sort_order": "DESC",
 "states": []
}
